// Jest Snapshot v1, https://goo.gl/fbAQLP

exports[`evidence in <Navbar /> should show successfy 1`] = `
<nav
  className="navbar navbar-expand-sm navbar-dark bg-dark"
>
  <a
    className="navbar-brand ml-2"
    href="/"
    onClick={[Function]}
  >
    <b
      className="m-3"
    >
       Heroes 
    </b>
  </a>
  <div
    className="navbar-collapse"
  >
    <div
      className="navbar-nav"
    >
      <a
        className="nav-item nav-link"
        href="/marvel"
        onClick={[Function]}
      >
        Marvel
      </a>
      <a
        className="nav-item nav-link"
        href="/dc"
        onClick={[Function]}
      >
        DC
      </a>
      <a
        className="nav-item nav-link"
        href="/search"
        onClick={[Function]}
      >
        Search
      </a>
    </div>
  </div>
  <div
    className=" navbar-collapse collapse w-100 order-3 dual-collapse2 d-flex justify-content-end"
  >
    <ul
      className=" mr-2 navbar-nav ml-auto"
    >
      <span
        className="nav-item nav-link text-info"
      >
        Barry Allen
      </span>
      <button
        className="nav-item nav-link btn"
        onClick={[Function]}
      >
        <b
          className="m-2"
        >
          Logout
        </b>
      </button>
    </ul>
  </div>
</nav>
`;
